[
    {
        "id": "1",
        "index": "asfewgsasadsa",
        "type": "Programowanie",
        "question": "1. Pytanie testowe",
        "answer_1": "A. Test1",
        "answer_2": "B. Test2",
        "answer_3": "C. Test3",
        "answer_4": "D. Test4",
        "answer_5": "E. Test5", 
        "correct_answer": "D. Test4"
    },

    {
        "id": "2",
        "type": "Programowanie",
        "question": "1. Pytanie testowe 2",
        "answer_1": "A. Test1",
        "answer_2": "B. Test2",
        "answer_3": "C. Test3",
        "answer_4": "D. Test4",
        "answer_5": "E. Test5", 
        "correct_answer": "D. Test4"
    },

    {
        "id": "3",
        "type": "Programowanie",
        "question": "1. Pytanie testowe 3",
        "answer_1": "A. Test1",
        "answer_2": "B. Test2",
        "answer_3": "C. Test3",
        "answer_4": "D. Test4",
        "answer_5": "E. Test5", 
        "correct_answer": "D. Test4"
    },

    {
        "id": "4",
        "type": "Programowanie",
        "question": "1. Pytanie testowe 4",
        "answer_1": "A. Test1",
        "answer_2": "B. Test2",
        "answer_3": "C. Test3",
        "answer_4": "D. Test4",
        "answer_5": "E. Test5", 
        "correct_answer": "D. Test4"
    },

    {
        "id": "5",
        "type": "Programowanie",
        "question": "1. Pytanie testowe 5",
        "answer_1": "A. Test1",
        "answer_2": "B. Test2",
        "answer_3": "C. Test3",
        "answer_4": "D. Test4",
        "answer_5": "E. Test5", 
        "correct_answer": "D. Test4"
    },

    {
        "id": "6",
        "type": "Programowanie",
        "question": "1. Pytanie testowe 6",
        "answer_1": "A. Test1",
        "answer_2": "B. Test2",
        "answer_3": "C. Test3",
        "answer_4": "D. Test4",
        "answer_5": "E. Test5", 
        "correct_answer": "D. Test4"
    },

    {
        "id": "7",
        "type": "Programowanie",
        "question": "1. Pytanie testowe 7",
        "answer_1": "A. Test1",
        "answer_2": "B. Test2",
        "answer_3": "C. Test3",
        "answer_4": "D. Test4",
        "answer_5": "E. Test5", 
        "correct_answer": "D. Test4"
    },

    {
        "id": "8",
        "type": "Programowanie",
        "question": "1. Pytanie testowe 8",
        "answer_1": "A. Test1",
        "answer_2": "B. Test2",
        "answer_3": "C. Test3",
        "answer_4": "D. Test4",
        "answer_5": "E. Test5", 
        "correct_answer": "D. Test4"
    },

    {
        "id": "9",
        "type": "Programowanie",
        "question": "1. Pytanie testowe 9",
        "answer_1": "A. Test1",
        "answer_2": "B. Test2",
        "answer_3": "C. Test3",
        "answer_4": "D. Test4",
        "answer_5": "E. Test5", 
        "correct_answer": "D. Test4"
    },

    {
        "id": "10",
        "type": "Programowanie",
        "question": "1. Pytanie testowe 10",
        "answer_1": "A. Test1",
        "answer_2": "B. Test2",
        "answer_3": "C. Test3",
        "answer_4": "D. Test4",
        "answer_5": "E. Test5", 
        "correct_answer": "D. Test4"
    },
    

    {
        "id": "1",
        "type": "Historia",
        "question": "1. Pytanie testowe 1",
        "answer_1": "A. Test1",
        "answer_2": "B. Test2",
        "answer_3": "C. Test3",
        "answer_4": "D. Test4",
        "answer_5": "E. Test5", 
        "correct_answer": "D. Test4"
    },

    {
        "id": "2",
        "type": "Historia",
        "question": "1. Pytanie testowe 2",
        "answer_1": "A. Test1",
        "answer_2": "B. Test2",
        "answer_3": "C. Test3",
        "answer_4": "D. Test4",
        "answer_5": "E. Test5", 
        "correct_answer": "D. Test4"
    },

    {
        "id": "3",
        "type": "Historia",
        "question": "1. Pytanie testowe 3",
        "answer_1": "A. Test1",
        "answer_2": "B. Test2",
        "answer_3": "C. Test3",
        "answer_4": "D. Test4",
        "answer_5": "E. Test5", 
        "correct_answer": "D. Test4"
    },

    {
        "id": "4",
        "type": "Historia",
        "question": "1. Pytanie testowe 4",
        "answer_1": "A. Test1",
        "answer_2": "B. Test2",
        "answer_3": "C. Test3",
        "answer_4": "D. Test4",
        "answer_5": "E. Test5", 
        "correct_answer": "D. Test4"
    },

    {
        "id": "5",
        "type": "Historia",
        "question": "1. Pytanie testowe 5",
        "answer_1": "A. Test1",
        "answer_2": "B. Test2",
        "answer_3": "C. Test3",
        "answer_4": "D. Test4",
        "answer_5": "E. Test5", 
        "correct_answer": "D. Test4"
    },

    {
        "id": "6",
        "type": "Historia",
        "question": "1. Pytanie testowe 6",
        "answer_1": "A. Test1",
        "answer_2": "B. Test2",
        "answer_3": "C. Test3",
        "answer_4": "D. Test4",
        "answer_5": "E. Test5", 
        "correct_answer": "D. Test4"
    },

    {
        "id": "7",
        "type": "Historia",
        "question": "1. Pytanie testowe 7",
        "answer_1": "A. Test1",
        "answer_2": "B. Test2",
        "answer_3": "C. Test3",
        "answer_4": "D. Test4",
        "answer_5": "E. Test5", 
        "correct_answer": "D. Test4"
    },

    {
        "id": "8",
        "type": "Historia",
        "question": "1. Pytanie testowe 8",
        "answer_1": "A. Test1",
        "answer_2": "B. Test2",
        "answer_3": "C. Test3",
        "answer_4": "D. Test4",
        "answer_5": "E. Test5", 
        "correct_answer": "D. Test4"
    },

    {
        "id": "9",
        "type": "Historia",
        "question": "1. Pytanie testowe 9",
        "answer_1": "A. Test1",
        "answer_2": "B. Test2",
        "answer_3": "C. Test3",
        "answer_4": "D. Test4",
        "answer_5": "E. Test5", 
        "correct_answer": "D. Test4"
    },

    {
        "id": "10",
        "type": "Historia",
        "question": "1. Pytanie testowe 10",
        "answer_1": "A. Test1",
        "answer_2": "B. Test2",
        "answer_3": "C. Test3",
        "answer_4": "D. Test4",
        "answer_5": "E. Test5", 
        "correct_answer": "D. Test4"
    },


    {
        "id": "1",
        "type": "Technologia",
        "question": "1. Pytanie testowe 1",
        "answer_1": "A. Test1",
        "answer_2": "B. Test2",
        "answer_3": "C. Test3",
        "answer_4": "D. Test4",
        "answer_5": "E. Test5", 
        "correct_answer": "D. Test4"
    },

    {
        "id": "2",
        "type": "Technologia",
        "question": "1. Pytanie testowe 2",
        "answer_1": "A. Test1",
        "answer_2": "B. Test2",
        "answer_3": "C. Test3",
        "answer_4": "D. Test4",
        "answer_5": "E. Test5", 
        "correct_answer": "D. Test4"
    },

    {
        "id": "3",
        "type": "Technologia",
        "question": "1. Pytanie testowe 3",
        "answer_1": "A. Test1",
        "answer_2": "B. Test2",
        "answer_3": "C. Test3",
        "answer_4": "D. Test4",
        "answer_5": "E. Test5", 
        "correct_answer": "D. Test4"
    },

    {
        "id": "4",
        "type": "Technologia",
        "question": "1. Pytanie testowe 4",
        "answer_1": "A. Test1",
        "answer_2": "B. Test2",
        "answer_3": "C. Test3",
        "answer_4": "D. Test4",
        "answer_5": "E. Test5", 
        "correct_answer": "D. Test4"
    },

    {
        "id": "5",
        "type": "Technologia",
        "question": "1. Pytanie testowe 5",
        "answer_1": "A. Test1",
        "answer_2": "B. Test2",
        "answer_3": "C. Test3",
        "answer_4": "D. Test4",
        "answer_5": "E. Test5", 
        "correct_answer": "D. Test4"
    },

    {
        "id": "6",
        "type": "Technologia",
        "question": "1. Pytanie testowe 6",
        "answer_1": "A. Test1",
        "answer_2": "B. Test2",
        "answer_3": "C. Test3",
        "answer_4": "D. Test4",
        "answer_5": "E. Test5", 
        "correct_answer": "D. Test4"
    },

    {
        "id": "7",
        "type": "Technologia",
        "question": "1. Pytanie testowe 7",
        "answer_1": "A. Test1",
        "answer_2": "B. Test2",
        "answer_3": "C. Test3",
        "answer_4": "D. Test4",
        "answer_5": "E. Test5", 
        "correct_answer": "D. Test4"
    },

    {
        "id": "8",
        "type": "Technologia",
        "question": "1. Pytanie testowe 8",
        "answer_1": "A. Test1",
        "answer_2": "B. Test2",
        "answer_3": "C. Test3",
        "answer_4": "D. Test4",
        "answer_5": "E. Test5", 
        "correct_answer": "D. Test4"
    },

    {
        "id": "9",
        "type": "Technologia",
        "question": "1. Pytanie testowe 9",
        "answer_1": "A. Test1",
        "answer_2": "B. Test2",
        "answer_3": "C. Test3",
        "answer_4": "D. Test4",
        "answer_5": "E. Test5", 
        "correct_answer": "D. Test4"
    },

    {
        "id": "10",
        "type": "Technologia",
        "question": "1. Pytanie testowe 10",
        "answer_1": "A. Test1",
        "answer_2": "B. Test2",
        "answer_3": "C. Test3",
        "answer_4": "D. Test4",
        "answer_5": "E. Test5", 
        "correct_answer": "D. Test4"
    },


    {
        "id": "1",
        "type": "Motoryzacja",
        "question": "1. Pytanie testowe 1",
        "answer_1": "A. Test1",
        "answer_2": "B. Test2",
        "answer_3": "C. Test3",
        "answer_4": "D. Test4",
        "answer_5": "E. Test5", 
        "correct_answer": "D. Test4"
    },

    {
        "id": "2",
        "type": "Motoryzacja",
        "question": "1. Pytanie testowe 2",
        "answer_1": "A. Test1",
        "answer_2": "B. Test2",
        "answer_3": "C. Test3",
        "answer_4": "D. Test4",
        "answer_5": "E. Test5", 
        "correct_answer": "D. Test4"
    },

    {
        "id": "3",
        "type": "Motoryzacja",
        "question": "1. Pytanie testowe 3",
        "answer_1": "A. Test1",
        "answer_2": "B. Test2",
        "answer_3": "C. Test3",
        "answer_4": "D. Test4",
        "answer_5": "E. Test5", 
        "correct_answer": "D. Test4"
    },

    {
        "id": "4",
        "type": "Motoryzacja",
        "question": "1. Pytanie testowe 4",
        "answer_1": "A. Test1",
        "answer_2": "B. Test2",
        "answer_3": "C. Test3",
        "answer_4": "D. Test4",
        "answer_5": "E. Test5", 
        "correct_answer": "D. Test4"
    },

    {
        "id": "5",
        "type": "Motoryzacja",
        "question": "1. Pytanie testowe 5",
        "answer_1": "A. Test1",
        "answer_2": "B. Test2",
        "answer_3": "C. Test3",
        "answer_4": "D. Test4",
        "answer_5": "E. Test5", 
        "correct_answer": "D. Test4"
    },

    {
        "id": "6",
        "type": "Motoryzacja",
        "question": "1. Pytanie testowe 6",
        "answer_1": "A. Test1",
        "answer_2": "B. Test2",
        "answer_3": "C. Test3",
        "answer_4": "D. Test4",
        "answer_5": "E. Test5", 
        "correct_answer": "D. Test4"
    },

    {
        "id": "7",
        "type": "Motoryzacja",
        "question": "1. Pytanie testowe 7",
        "answer_1": "A. Test1",
        "answer_2": "B. Test2",
        "answer_3": "C. Test3",
        "answer_4": "D. Test4",
        "answer_5": "E. Test5", 
        "correct_answer": "D. Test4"
    },

    {
        "id": "8",
        "type": "Motoryzacja",
        "question": "1. Pytanie testowe 8",
        "answer_1": "A. Test1",
        "answer_2": "B. Test2",
        "answer_3": "C. Test3",
        "answer_4": "D. Test4",
        "answer_5": "E. Test5", 
        "correct_answer": "D. Test4"
    },

    {
        "id": "9",
        "type": "Motoryzacja",
        "question": "1. Pytanie testowe 9",
        "answer_1": "A. Test1",
        "answer_2": "B. Test2",
        "answer_3": "C. Test3",
        "answer_4": "D. Test4",
        "answer_5": "E. Test5", 
        "correct_answer": "D. Test4"
    },

    {
        "id": "10",
        "type": "Motoryzacja",
        "question": "1. Pytanie testowe 10",
        "answer_1": "A. Test1",
        "answer_2": "B. Test2",
        "answer_3": "C. Test3",
        "answer_4": "D. Test4",
        "answer_5": "E. Test5", 
        "correct_answer": "D. Test4"
    },


    {
        "id": "1",
        "type": "Kultura",
        "question": "1. Pytanie testowe 1",
        "answer_1": "A. Test1",
        "answer_2": "B. Test2",
        "answer_3": "C. Test3",
        "answer_4": "D. Test4",
        "answer_5": "E. Test5", 
        "correct_answer": "D. Test4"
    },

    {
        "id": "2",
        "type": "Kultura",
        "question": "1. Pytanie testowe 2",
        "answer_1": "A. Test1",
        "answer_2": "B. Test2",
        "answer_3": "C. Test3",
        "answer_4": "D. Test4",
        "answer_5": "E. Test5", 
        "correct_answer": "D. Test4"
    },

    {
        "id": "3",
        "type": "Kultura",
        "question": "1. Pytanie testowe 3",
        "answer_1": "A. Test1",
        "answer_2": "B. Test2",
        "answer_3": "C. Test3",
        "answer_4": "D. Test4",
        "answer_5": "E. Test5", 
        "correct_answer": "D. Test4"
    },

    {
        "id": "4",
        "type": "Kultura",
        "question": "1. Pytanie testowe 4",
        "answer_1": "A. Test1",
        "answer_2": "B. Test2",
        "answer_3": "C. Test3",
        "answer_4": "D. Test4",
        "answer_5": "E. Test5", 
        "correct_answer": "D. Test4"
    },

    {
        "id": "5",
        "type": "Kultura",
        "question": "1. Pytanie testowe 5",
        "answer_1": "A. Test1",
        "answer_2": "B. Test2",
        "answer_3": "C. Test3",
        "answer_4": "D. Test4",
        "answer_5": "E. Test5", 
        "correct_answer": "D. Test4"
    },

    {
        "id": "6",
        "type": "Kultura",
        "question": "1. Pytanie testowe 6",
        "answer_1": "A. Test1",
        "answer_2": "B. Test2",
        "answer_3": "C. Test3",
        "answer_4": "D. Test4",
        "answer_5": "E. Test5", 
        "correct_answer": "D. Test4"
    },

    {
        "id": "7",
        "type": "Kultura",
        "question": "1. Pytanie testowe 7",
        "answer_1": "A. Test1",
        "answer_2": "B. Test2",
        "answer_3": "C. Test3",
        "answer_4": "D. Test4",
        "answer_5": "E. Test5", 
        "correct_answer": "D. Test4"
    },

    {
        "id": "8",
        "type": "Kultura",
        "question": "1. Pytanie testowe 8",
        "answer_1": "A. Test1",
        "answer_2": "B. Test2",
        "answer_3": "C. Test3",
        "answer_4": "D. Test4",
        "answer_5": "E. Test5", 
        "correct_answer": "D. Test4"
    },

    {
        "id": "9",
        "type": "Kultura",
        "question": "1. Pytanie testowe 9",
        "answer_1": "A. Test1",
        "answer_2": "B. Test2",
        "answer_3": "C. Test3",
        "answer_4": "D. Test4",
        "answer_5": "E. Test5", 
        "correct_answer": "D. Test4"
    },

    {
        "id": "10",
        "type": "Kultura",
        "question": "1. Pytanie testowe 10",
        "answer_1": "A. Test1",
        "answer_2": "B. Test2",
        "answer_3": "C. Test3",
        "answer_4": "D. Test4",
        "answer_5": "E. Test5", 
        "correct_answer": "D. Test4"
    }
]